Country,Preemptive,Reactive,PrCaseAsc,PrDieOut,PrSmall,PrLarge
PNG,Yes,No,0.1,0.155,0.000,0.845
PNG,No,No,0.1,0.155,0.000,0.845
PNG,Yes,Small,0.1,0.155,0.000,0.845
PNG,No,Small,0.1,0.165,0.000,0.835
PNG,Yes,Large,0.1,0.155,0.000,0.845
PNG,No,Large,0.1,0.155,0.000,0.845
PNG,Yes,No,0.15,0.175,0.000,0.825
PNG,No,No,0.15,0.155,0.000,0.845
PNG,Yes,Small,0.15,0.165,0.005,0.830
PNG,No,Small,0.15,0.150,0.000,0.850
PNG,Yes,Large,0.15,0.175,0.000,0.825
PNG,No,Large,0.15,0.155,0.000,0.845
PNG,Yes,No,0.2,0.150,0.010,0.840
PNG,No,No,0.2,0.165,0.000,0.835
PNG,Yes,Small,0.2,0.150,0.000,0.850
PNG,No,Small,0.2,0.160,0.000,0.840
PNG,Yes,Large,0.2,0.150,0.000,0.850
PNG,No,Large,0.2,0.165,0.000,0.835
PNG,Yes,No,0.25,0.145,0.000,0.855
PNG,No,No,0.25,0.165,0.000,0.835
PNG,Yes,Small,0.25,0.140,0.000,0.860
PNG,No,Small,0.25,0.160,0.000,0.840
PNG,Yes,Large,0.25,0.140,0.005,0.855
PNG,No,Large,0.25,0.165,0.000,0.835
PNG,Yes,No,0.3,0.145,0.000,0.855
PNG,No,No,0.3,0.155,0.000,0.845
PNG,Yes,Small,0.3,0.145,0.005,0.850
PNG,No,Small,0.3,0.155,0.000,0.845
PNG,Yes,Large,0.3,0.145,0.005,0.850
PNG,No,Large,0.3,0.155,0.000,0.845
PNG,Yes,No,0.35,0.150,0.005,0.845
PNG,No,No,0.35,0.150,0.000,0.850
PNG,Yes,Small,0.35,0.150,0.000,0.850
PNG,No,Small,0.35,0.150,0.000,0.850
PNG,Yes,Large,0.35,0.150,0.000,0.850
PNG,No,Large,0.35,0.150,0.000,0.850
PNG,Yes,No,0.4,0.165,0.005,0.830
PNG,No,No,0.4,0.165,0.000,0.835
PNG,Yes,Small,0.4,0.155,0.005,0.840
PNG,No,Small,0.4,0.165,0.000,0.835
PNG,Yes,Large,0.4,0.155,0.000,0.845
PNG,No,Large,0.4,0.165,0.000,0.835
PNG,Yes,No,0.45,0.160,0.000,0.840
PNG,No,No,0.45,0.155,0.000,0.845
PNG,Yes,Small,0.45,0.145,0.010,0.845
PNG,No,Small,0.45,0.160,0.005,0.835
PNG,Yes,Large,0.45,0.150,0.005,0.845
PNG,No,Large,0.45,0.155,0.000,0.845
PNG,Yes,No,0.5,0.180,0.020,0.800
PNG,No,No,0.5,0.160,0.000,0.840
PNG,Yes,Small,0.5,0.190,0.020,0.790
PNG,No,Small,0.5,0.165,0.000,0.835
PNG,Yes,Large,0.5,0.180,0.010,0.810
PNG,No,Large,0.5,0.160,0.000,0.840
PNG,Yes,No,0.55,0.185,0.045,0.770
PNG,No,No,0.55,0.160,0.000,0.840
PNG,Yes,Small,0.55,0.185,0.025,0.790
PNG,No,Small,0.55,0.160,0.000,0.840
PNG,Yes,Large,0.55,0.185,0.035,0.780
PNG,No,Large,0.55,0.160,0.000,0.840
PNG,Yes,No,0.6,0.165,0.055,0.780
PNG,No,No,0.6,0.160,0.000,0.840
PNG,Yes,Small,0.6,0.160,0.070,0.770
PNG,No,Small,0.6,0.160,0.000,0.840
PNG,Yes,Large,0.6,0.160,0.070,0.770
PNG,No,Large,0.6,0.160,0.000,0.840
PNG,Yes,No,0.65,0.185,0.225,0.590
PNG,No,No,0.65,0.155,0.000,0.845
PNG,Yes,Small,0.65,0.185,0.345,0.470
PNG,No,Small,0.65,0.155,0.010,0.835
PNG,Yes,Large,0.65,0.185,0.770,0.045
PNG,No,Large,0.65,0.155,0.285,0.560
PNG,Yes,No,0.7,0.165,0.760,0.075
PNG,No,No,0.7,0.160,0.190,0.650
PNG,Yes,Small,0.7,0.170,0.830,0.000
PNG,No,Small,0.7,0.160,0.840,0.000
PNG,Yes,Large,0.7,0.165,0.835,0.000
PNG,No,Large,0.7,0.160,0.840,0.000
PNG,Yes,No,0.75,0.155,0.845,0.000
PNG,No,No,0.75,0.155,0.805,0.040
PNG,Yes,Small,0.75,0.155,0.845,0.000
PNG,No,Small,0.75,0.160,0.840,0.000
PNG,Yes,Large,0.75,0.150,0.850,0.000
PNG,No,Large,0.75,0.155,0.845,0.000
PNG,Yes,No,0.8,0.175,0.825,0.000
PNG,No,No,0.8,0.155,0.835,0.010
PNG,Yes,Small,0.8,0.175,0.825,0.000
PNG,No,Small,0.8,0.155,0.845,0.000
PNG,Yes,Large,0.8,0.175,0.825,0.000
PNG,No,Large,0.8,0.155,0.845,0.000
PNG,Yes,No,0.85,0.160,0.840,0.000
PNG,No,No,0.85,0.165,0.835,0.000
PNG,Yes,Small,0.85,0.170,0.830,0.000
PNG,No,Small,0.85,0.170,0.830,0.000
PNG,Yes,Large,0.85,0.165,0.835,0.000
PNG,No,Large,0.85,0.165,0.835,0.000
PNG,Yes,No,0.9,0.165,0.835,0.000
PNG,No,No,0.9,0.155,0.845,0.000
PNG,Yes,Small,0.9,0.150,0.850,0.000
PNG,No,Small,0.9,0.155,0.845,0.000
PNG,Yes,Large,0.9,0.170,0.830,0.000
PNG,No,Large,0.9,0.155,0.845,0.000
